{
  "name": "account",
  "base": "PersistedModel",
  "idInjection": true,
  "options": {
    "validateUpsert": true
  },
  "properties": {
    "id": {
      "type": "string",
      "required": true
    },
    "ownerId": {
      "type": "string",
      "required": true
    },
    "totalAmount": {
      "type": "number",
      "required": false,
      "default": 0
    },
    "creationDate": {
      "type": "date",
      "required": true
    },
    "accountBalance": {
      "type": "object",
      "required": true
    }
  },
  "validations": [],
  "relations": {},
  "acls": [],
  "methods": {}
}
