{
  "name": "Customer",
  "base": "User",
  "public": true,
  "idInjection": false,
  "options": {
    "validateUpsert": true
  },
  "properties": {
    "dob": {
      "type": "date",
      "required": true
    }
  },
  "validations": [],
  "relations": {},
  "acls": [
    {
      "principalType": "ROLE",
      "principalId": "$everyone",
      "permission": "ALLOW"
    },
    {
      "principalType": "ROLE",
      "principalId": "$everyone",
      "permission": "ALLOW",
      "property": "createAccount"
    },
    {
      "principalType": "ROLE",
      "principalId": "$everyone",
      "permission": "ALLOW",
      "property": "sendEmail"
    }
  ],
  "methods": {}
}
